<?xml version="1.0" encoding="UTF-8" standalone="no"?>
<!-- Generator: Adobe Illustrator 15.0.0, SVG Export Plug-In . SVG Version: 6.00 Build 0)  -->

<svg
   xmlns:dc="http://purl.org/dc/elements/1.1/"
   xmlns:cc="http://creativecommons.org/ns#"
   xmlns:rdf="http://www.w3.org/1999/02/22-rdf-syntax-ns#"
   xmlns:svg="http://www.w3.org/2000/svg"
   xmlns="http://www.w3.org/2000/svg"
   xmlns:sodipodi="http://sodipodi.sourceforge.net/DTD/sodipodi-0.dtd"
   xmlns:inkscape="http://www.inkscape.org/namespaces/inkscape"
   version="1.1"
   id="Layer_1"
   x="0px"
   y="0px"
   width="512px"
   height="512px"
   viewBox="0 0 512 512"
   enable-background="new 0 0 512 512"
   xml:space="preserve"
   inkscape:version="0.91 r13725"
   sodipodi:docname="rss.svg"><metadata
     id="metadata4214"><rdf:RDF><cc:Work
         rdf:about=""><dc:format>image/svg+xml</dc:format><dc:type
           rdf:resource="http://purl.org/dc/dcmitype/StillImage" /></cc:Work></rdf:RDF></metadata><defs
     id="defs4212" /><sodipodi:namedview
     pagecolor="#ffffff"
     bordercolor="#666666"
     borderopacity="1"
     objecttolerance="10"
     gridtolerance="10"
     guidetolerance="10"
     inkscape:pageopacity="0"
     inkscape:pageshadow="2"
     inkscape:window-width="790"
     inkscape:window-height="733"
     id="namedview4210"
     showgrid="false"
     inkscape:zoom="0.4609375"
     inkscape:cx="256"
     inkscape:cy="256"
     inkscape:window-x="422"
     inkscape:window-y="0"
     inkscape:window-maximized="0"
     inkscape:current-layer="Layer_1" /><path
     d="M426.67,0H85.343C38.405,0,0,38.406,0,85.344v341.314C0,473.625,38.406,512,85.344,512H426.67  c46.938,0,85.33-38.374,85.33-85.342V85.344C512,38.406,473.608,0,426.67,0z M136.173,418.908  c-23.985,0-43.472-19.346-43.472-43.314c0-23.842,19.487-43.406,43.472-43.406c24.079,0,43.53,19.564,43.53,43.406  C179.702,399.563,160.251,418.908,136.173,418.908z M245.435,419.282c0-40.905-15.904-79.409-44.731-108.222  c-28.857-28.874-67.188-44.812-107.952-44.812v-62.594c118.826,0,215.563,96.721,215.563,215.627H245.435L245.435,419.282z   M356.515,419.282c0-145.531-118.329-263.97-263.688-263.97V92.688c180.001,0,326.473,146.562,326.473,326.596L356.515,419.282  L356.515,419.282z"
     id="path4208" /><path
     style="fill:#818181;fill-opacity:1"
     d="M 72.735707,509.63046 C 46.590907,505.72772 21.519325,487.42897 9.9956048,463.83896 0.31076599,444.0133 -0.28914462,430.15096 0.48472146,244.0678 1.293435,49.605265 0.45867238,59.913275 17.302817,36.390699 27.691728,21.882754 47.16956,8.1955944 63.337735,4.041759 72.607521,1.6602177 110.31313,1.0847458 257.08475,1.0847458 c 204.74875,0 194.85262,-0.73302436 218.47536,16.1828532 14.55849,10.425095 28.23795,29.877315 32.39813,46.070136 4.34766,16.9226 4.34766,368.401925 0,385.324525 -4.15384,16.16818 -17.84099,35.646 -32.34894,46.03492 -23.62119,16.91476 -12.57494,16.05588 -212.01608,16.48499 -97.84407,0.21044 -183.729948,-0.48775 -190.857513,-1.55171 z m 80.612703,-93.40394 c 7.54736,-2.28973 21.35649,-16.234 24.64671,-24.88795 5.15945,-13.57037 0.74725,-35.12793 -9.4207,-46.02857 -18.72629,-20.07569 -54.43734,-17.20029 -68.861741,5.54464 -7.449559,11.74673 -9.646518,23.34935 -6.578571,34.74284 7.422392,27.56467 30.918992,39.51662 60.214302,30.62904 z m 155.46059,3.02772 c 0.54849,-0.89492 0.09,-10.64498 -1.0189,-21.6668 -8.79698,-87.43769 -70.21926,-161.47879 -154.13022,-185.79522 -18.46514,-5.35099 -57.166217,-10.92589 -60.697431,-8.74348 -1.014094,0.62675 -1.843805,15.06205 -1.843805,32.07845 l 0,30.93893 19.788646,2.63469 c 38.63406,5.14378 73.20109,23.91238 97.58944,52.98744 20.5469,24.49539 31.39859,50.98355 35.5269,86.71853 l 1.44112,12.47458 31.17349,0 c 17.14541,0 31.62225,-0.73221 32.17076,-1.62712 z M 419.91836,401.89831 C 413.04203,313.47298 380.82974,243.53395 319.69347,184.29091 275.82664,141.78253 226.964,114.81422 168.60728,100.9033 c -19.53,-4.655509 -57.42714,-9.784656 -72.294776,-9.784656 l -5.19386,0 0,32.245136 0,32.24513 21.014566,1.54257 c 27.36127,2.00845 64.93925,11.60932 88.31598,22.56402 89.34745,41.86964 146.65689,124.31952 154.4353,222.18281 l 1.50882,18.98305 32.50063,0 32.50061,0 -1.47619,-18.98305 z"
     id="path4756"
     inkscape:connector-curvature="0" /><path
     style="fill:#818181;fill-opacity:1"
     d="M 64.74276,506.88319 C 40.483894,500.18836 17.143775,479.50566 7.5802644,456.22901 3.4728741,446.23204 3.2820419,439.12878 2.638157,272.27119 2.2410121,169.35433 2.8342393,90.058318 4.0956388,77.451231 6.56023,52.818816 11.613161,42.14282 28.44544,26.004185 43.062895,11.989102 55.652591,6.3253895 77.533366,3.921055 94.356278,2.0724957 438.09002,2.7322798 451.25424,4.638398 c 2.98305,0.4319319 5.91186,1.2734664 6.50847,1.8700766 0.59661,0.5966101 6.54636,4.7599944 13.22164,9.2519644 14.46029,9.730696 24.03105,21.113471 31.93889,37.985926 l 5.82252,12.423127 0,189.830508 0,189.83051 -5.82252,12.42314 c -7.90784,16.87244 -17.4786,28.25522 -31.93889,37.98591 -6.67528,4.49197 -12.62503,8.65536 -13.22164,9.25197 -2.41048,2.41047 -19.11556,2.70036 -197.42373,3.42571 -146.31011,0.5952 -187.62594,0.16553 -195.59622,-2.03405 z m 83.32504,-88.54676 c 2.08813,0.0582 3.79661,-0.86745 3.79661,-2.05693 0,-1.18947 0.92929,-1.58835 2.0651,-0.88639 1.13581,0.70198 6.67995,-3.14551 12.32033,-8.54993 5.64037,-5.40442 9.5227,-9.82623 8.62739,-9.82623 -0.89531,0 -0.10301,-1.52483 1.76065,-3.38849 2.55761,-2.55761 3.21984,-6.94638 2.70073,-17.8983 -1.36928,-28.88821 -13.65391,-41.65103 -41.68878,-43.31149 -10.95546,-0.6489 -16.1583,-0.18274 -16.1583,1.44774 0,1.32263 -0.73221,2.28916 -1.62712,2.14787 -4.17474,-0.65918 -7.21381,0.67416 -13.39869,5.87838 -3.67441,3.09181 -6.1956,6.40647 -5.60264,7.36591 0.59295,0.95941 -0.31991,2.28087 -2.028587,2.93655 -5.917336,2.27068 -10.973521,33.97437 -5.418321,33.97437 1.26364,0 1.711879,0.94759 0.996086,2.10578 -3.652322,5.90958 15.380402,27.04316 26.576682,29.51026 3.25947,0.71824 6.90259,1.66776 8.09581,2.11007 1.19322,0.44232 5.0983,0.24865 8.67796,-0.43036 3.57966,-0.67903 8.21695,-1.18699 10.30509,-1.12881 z m 161.36886,-8.8449 c -1.27636,-10.7473 -1.8834,-15.30566 -4.11707,-30.91526 -2.03023,-14.18804 -4.3321,-22.77966 -6.10312,-22.77966 -1.02296,0 -1.29801,-1.46441 -0.61119,-3.25424 0.68684,-1.78983 0.3758,-3.25423 -0.69116,-3.25423 -1.06696,0 -2.10278,-2.16212 -2.30185,-4.80471 -0.48749,-6.47157 -15.42342,-36.41563 -18.1639,-36.41563 -1.19847,0 -1.65156,-0.85346 -1.00688,-1.89655 0.64467,-1.04311 -1.20363,-4.46006 -4.10737,-7.59322 -2.90371,-3.13318 -4.59389,-5.72915 -3.75595,-5.76885 0.83794,-0.0397 -0.78123,-1.99225 -3.59817,-4.33899 -2.81695,-2.34674 -4.30752,-4.2668 -3.31242,-4.2668 0.9951,0 -4.99844,-6.93988 -13.31899,-15.42198 -16.70039,-17.02463 -39.70951,-34.95977 -42.57676,-33.18771 -1.01179,0.62533 -1.83963,0.12813 -1.83963,-1.10486 0,-2.57807 -12.99983,-9.84025 -13.05017,-7.29032 -0.0182,0.92555 -0.78468,0.50035 -1.70315,-0.94487 -2.0424,-3.21385 -17.77592,-10.01713 -17.82227,-7.70649 -0.0182,0.91092 -0.75048,0.54224 -1.62712,-0.81929 -1.89083,-2.9367 -24.13417,-9.86071 -26.66087,-8.29912 -0.96352,0.59549 -2.35583,0.10545 -3.09403,-1.08898 -0.73819,-1.19442 -3.4904,-2.19855 -6.11601,-2.2314 -2.62561,-0.0328 -8.19078,-0.59819 -12.36705,-1.25631 -4.17628,-0.65812 -12.71865,-1.71667 -18.98306,-2.35235 l -11.389826,-1.15577 0,32.65345 0,32.65345 8.135593,1.22446 c 27.593983,4.15306 42.485973,8.46013 61.240993,17.71214 41.53599,20.49009 70.75714,59.51453 79.37621,106.00578 1.99092,10.73898 4.01223,21.72203 4.4918,24.40678 0.85892,4.80827 1.3627,4.88136 33.64903,4.88136 l 32.77707,0 -1.35268,-11.38983 z m 111.97681,-2.1695 c -0.45623,-7.45762 -1.3859,-15.02372 -2.06597,-16.81356 -0.68005,-1.78983 -1.03497,-6.32851 -0.78871,-10.08598 0.24628,-3.75745 -0.55218,-7.44973 -1.77432,-8.20506 -1.22214,-0.75533 -1.67214,-2.80648 -0.99999,-4.55811 0.67218,-1.7516 0.51662,-4.89322 -0.34566,-6.98135 -0.86227,-2.08814 -1.89818,-6.99021 -2.30201,-10.8935 -0.40383,-3.90328 -1.44837,-8.25233 -2.32118,-9.66458 -0.87281,-1.41223 -1.91069,-5.54069 -2.30641,-9.17431 -0.39571,-3.63363 -1.68504,-6.93404 -2.86516,-7.33427 -1.18011,-0.40022 -1.66918,-1.49866 -1.08678,-2.44098 1.55151,-2.5104 -5.41343,-21.7805 -7.87231,-21.7805 -1.15148,0 -1.53543,-0.90312 -0.85324,-2.00691 1.54666,-2.50255 -3.15164,-13.17953 -5.79952,-13.17953 -1.07212,0 -1.33207,-0.9987 -0.57767,-2.21935 2.40577,-3.89261 -29.00263,-56.35692 -33.73877,-56.35692 -1.14876,0 -1.84458,-0.92993 -1.54628,-2.06653 1.46853,-5.59538 -60.10906,-67.1889 -65.71309,-65.73008 -1.14593,0.2983 -2.08352,-0.45361 -2.08352,-1.67092 0,-3.03314 -32.55623,-24.06811 -34.95561,-22.58522 -1.05916,0.6546 -1.92574,0.11138 -1.92574,-1.20716 0,-2.83771 -21.68127,-13.30968 -24.25861,-11.71681 -0.9764,0.60346 -1.77529,0.1988 -1.77529,-0.89924 0,-2.58687 -23.65333,-11.66311 -26.23567,-10.06714 -1.08225,0.66887 -1.96772,0.0778 -1.96772,-1.31352 0,-1.3913 -1.40134,-1.9919 -3.11407,-1.33466 -1.71274,0.65724 -3.42122,0.29036 -3.79661,-0.8153 -0.3754,-1.10565 -3.65551,-2.33404 -7.28914,-2.72976 -3.63363,-0.39571 -7.78278,-1.4464 -9.22034,-2.33486 -1.43756,-0.88846 -3.52255,-1.05371 -4.63333,-0.36721 -1.11077,0.68649 -2.66166,0.20927 -3.44643,-1.060521 -0.78476,-1.26978 -3.04883,-2.111935 -5.03126,-1.871458 -1.98243,0.24048 -5.06882,-0.124069 -6.85865,-0.810105 -5.68542,-2.179203 -36.61052,-5.927982 -48.90218,-5.927982 l -11.843586,0 0,32.542376 c 0,17.8983 0.526614,32.54237 1.170254,32.54237 10.270592,0 48.210482,5.80161 64.427832,9.85203 36.07927,9.01112 61.08308,20.97209 92.05068,44.03395 52.29391,38.94372 90.19499,100.23259 101.01943,163.35595 1.4047,8.19152 3.16244,14.89366 3.90614,14.89366 0.74368,0 0.92228,2.92897 0.39687,6.5088 -0.52541,3.57984 -0.29653,10.90187 0.50866,16.27119 l 1.46397,9.76239 33.09024,0 33.09025,0 -0.8295,-13.55933 z"
     id="path4758"
     inkscape:connector-curvature="0" /><path
     style="fill:#818181;fill-opacity:1"
     d="M 66.703019,507.54126 C 44.514193,502.13166 20.551591,483.27148 11.14413,463.81271 8.4263066,458.19106 5.3148062,447.45207 4.2296841,439.9483 1.6130384,421.85383 1.6273406,97.204482 4.2457865,74.43361 6.7219048,52.900467 11.629858,42.685503 26.715464,27.667285 41.568866,12.880234 54.799074,6.5099151 75.972426,3.9501564 91.954896,2.0179506 442.506,2.5793182 452.33898,4.5528645 c 2.38644,0.4789754 4.82712,1.3589999 5.42373,1.9556101 0.59661,0.5966101 6.72499,4.8830244 13.61862,9.5253644 14.17305,9.544501 22.55913,19.250073 31.32704,36.256146 L 508.74576,64 l 0,192 0,192 -6.03739,11.71003 c -8.76791,17.00605 -17.15399,26.71162 -31.32704,36.25613 -6.89363,4.64234 -13.02201,8.92876 -13.61862,9.52537 -0.59661,0.59661 -3.03729,1.47978 -5.42373,1.96263 -9.37077,1.89594 -377.875195,1.97916 -385.635961,0.087 l 0,1.1e-4 z M 309.34623,409.49153 c -4.98351,-37.95615 -5.87543,-43.24491 -8.26684,-49.01954 -1.31196,-3.16806 -2.18605,-6.98046 -1.94237,-8.47199 0.24366,-1.49153 -0.36829,-2.71186 -1.3599,-2.71186 -0.99161,0 -1.94428,-1.87659 -2.11706,-4.17018 -0.44025,-5.84457 -15.9115,-37.05016 -18.36891,-37.05016 -1.11199,0 -1.49434,-0.85346 -0.84966,-1.89655 0.64467,-1.04311 -1.14779,-4.39982 -3.98327,-7.45932 -2.83546,-3.05953 -4.67465,-6.04353 -4.08706,-6.63109 0.58756,-0.58759 -0.97929,-2.34709 -3.48193,-3.91001 -2.50264,-1.56293 -4.55025,-3.80267 -4.55025,-4.97723 0,-3.17648 -28.72411,-31.53258 -31.94181,-31.53258 -1.52353,0 -2.77005,-0.92937 -2.77005,-2.06527 0,-1.1359 -4.39322,-5.08789 -9.76271,-8.78219 -5.36949,-3.6943 -9.76272,-6.14385 -9.76272,-5.44345 0,0.70042 -2.13663,-0.71708 -4.74806,-3.14999 -4.45901,-4.15421 -7.12272,-5.28959 -10.98075,-4.68042 -0.89491,0.14123 -1.62712,-0.64365 -1.62712,-1.74434 0,-1.57218 -8.95198,-5.62889 -17.35593,-7.86505 -0.59661,-0.15881 -4.66955,-1.89012 -9.05099,-3.84749 -4.38143,-1.95737 -11.70346,-4.12475 -16.27118,-4.81639 -4.56772,-0.69165 -10.74563,-1.71715 -13.72868,-2.27888 -9.45626,-1.78071 -18.10472,-3.06867 -29.83051,-4.44245 l -11.389826,-1.33443 0,32.68547 0,32.68545 10.305086,1.37632 c 41.08885,5.48767 71.28216,19.628 97.38612,45.60855 25.70269,25.58117 37.59294,51.65286 45.2317,99.1793 l 1.30761,8.1356 32.74624,0 32.74627,0 -1.49544,-11.38983 z m 111.13407,-4.33899 c -1.6978,-17.46056 -2.96754,-27.68021 -4.64967,-37.42373 -0.618,-3.57966 -1.75757,-10.88674 -2.53236,-16.23797 -0.77482,-5.35124 -2.30591,-10.81055 -3.40248,-12.13182 -1.09655,-1.32128 -1.48675,-2.90928 -0.86713,-3.52893 0.61965,-0.61965 -0.0152,-3.94677 -1.41043,-7.39361 -1.39539,-3.44684 -2.71995,-7.7314 -2.94347,-9.52123 -0.77913,-6.239 -6.37373,-19.52542 -8.22168,-19.52542 -1.02394,0 -1.30354,-0.90312 -0.62135,-2.00691 1.621,-2.62287 -3.21141,-13.17953 -6.03307,-13.17953 -1.20057,0 -1.57724,-0.60561 -0.83705,-1.34578 2.99005,-2.99006 -28.60011,-57.23049 -33.33162,-57.23049 -1.10158,0 -2.00287,-1.53292 -2.00287,-3.40649 0,-4.44586 -59.40189,-63.84775 -63.84775,-63.84775 -1.87357,0 -3.40649,-0.9013 -3.40649,-2.00288 0,-2.58995 -30.03051,-22.58469 -33.92041,-22.58469 -1.62851,0 -2.96094,-0.64051 -2.96094,-1.42335 0,-1.84818 -19.5007,-11.5936 -23.19892,-11.5936 -1.55924,0 -2.83498,-0.72393 -2.83498,-1.60874 0,-2.13862 -25.35323,-10.64255 -26.95469,-9.04109 -0.68679,0.68679 -1.2487,0.0669 -1.2487,-1.37748 0,-1.44439 -1.22034,-2.42681 -2.71187,-2.18315 -1.49152,0.24366 -5.47853,-0.6968 -8.86002,-2.08991 -3.38148,-1.39311 -6.97504,-2.02188 -7.98568,-1.39727 -1.01064,0.62461 -2.49188,0.0769 -3.29163,-1.21713 -0.79976,-1.29403 -2.78849,-1.84073 -4.41942,-1.21489 -1.63092,0.62585 -3.53309,0.21921 -4.22705,-0.90364 -0.69396,-1.122847 -3.40997,-2.040585 -6.03558,-2.039418 -2.62561,0.0012 -13.07214,-1.424959 -23.21452,-3.169174 -10.14237,-1.744214 -24.05423,-3.224517 -30.91525,-3.289563 l -12.474576,-0.118261 0,32.369696 0,32.36969 14.059666,1.50566 c 7.73282,0.82812 15.54299,0.93647 17.35593,0.24077 1.81295,-0.69569 3.29627,-0.44503 3.29627,0.55701 0,1.00205 4.72304,2.44844 10.49564,3.2142 15.96136,2.11735 47.28635,11.71302 65.18375,19.96749 37.32784,17.21599 78.56022,51.32376 102.88393,85.10643 21.39546,29.7157 38.40497,68.92349 44.8791,103.44872 1.34252,7.15932 3.02145,14.48135 3.73098,16.27118 0.70953,1.78983 1.04923,5.13638 0.75488,7.4368 -0.29436,2.3004 0.11389,9.37837 0.90743,15.72882 l 1.4426,11.54625 32.95046,0 32.95043,0 -1.52941,-15.72882 z m -268.61589,10.95704 c 0,-1.09603 0.83769,-1.47506 1.86153,-0.84228 1.02384,0.63277 6.61612,-3.21471 12.42729,-8.54993 5.81117,-5.33523 9.7851,-9.70042 8.83096,-9.70042 -0.95414,0 -0.18462,-1.55019 1.71006,-3.44485 2.72669,-2.72668 3.21593,-6.58456 2.34678,-18.50522 -1.20519,-16.52979 -4.64794,-24.98786 -13.51925,-33.21381 -8.49917,-7.88087 -39.4166,-13.46126 -42.94551,-7.75138 -0.73745,1.19323 -3.16084,2.1695 -5.38531,2.1695 -4.98986,0 -17.860704,10.50721 -16.18739,13.21469 0.67023,1.08447 0.29072,1.97175 -0.84336,1.97175 -5.775828,0 -11.968156,30.47756 -6.836686,33.64898 1.212683,0.74948 1.660922,2.24285 0.996085,3.31857 -3.079964,4.98349 12.135501,23.5687 22.832931,27.8897 6.68723,2.70117 34.71187,2.53542 34.71187,-0.20523 l 0,-7e-5 z"
     id="path4760"
     inkscape:connector-curvature="0" /><path
     style="fill:#ffffff;fill-opacity:1"
     d="m 115.97533,412.62187 c -20.958054,-13.1651 -28.103775,-38.86404 -16.233656,-58.38288 11.296266,-18.57522 35.432226,-25.4534 55.399316,-15.7875 27.3635,13.24645 30.7462,52.14069 6.16537,70.8894 -10.58316,8.07217 -34.9017,9.8323 -45.33103,3.28098 z"
     id="path5337"
     inkscape:connector-curvature="0" /><path
     style="fill:#ffffff;fill-opacity:1"
     d="m 246.35388,410.57627 c -7.0224,-49.04955 -16.94047,-70.68897 -45.57338,-99.43281 -15.98022,-16.04213 -23.05505,-21.38229 -38.06864,-28.73468 -19.19781,-9.40147 -35.75409,-14.23699 -56.94915,-16.63289 l -12.474577,-1.41014 0,-30.3245 0,-30.32451 13.559327,1.34549 c 47.59837,4.72315 85.40324,19.764 120.74024,48.03709 44.11661,35.29765 74.01289,91.93031 79.12338,149.88373 l 1.387,15.72881 -30.28971,0 -30.28973,0 -1.16476,-8.13559 z"
     id="path5339"
     inkscape:connector-curvature="0" /><path
     style="fill:#ffffff;fill-opacity:1"
     d="m 356.94353,401.89831 c -4.91893,-53.97225 -21.82983,-99.81134 -51.66922,-140.0557 -25.93991,-34.98517 -55.9996,-59.95191 -95.91838,-79.66716 -30.40959,-15.01881 -57.38206,-22.7813 -91.66102,-26.3794 l -24.406777,-2.56187 0,-29.97302 0,-29.973024 5.509237,0 c 14.01029,0 49.75733,5.047026 70.30503,9.926174 101.38887,24.07526 187.82607,99.38519 226.54141,197.3782 12.23081,30.9576 23.06805,83.8612 23.06805,112.61013 l 0,5.50922 -30.11799,0 -30.11798,0 -1.53236,-16.81355 z"
     id="path5341"
     inkscape:connector-curvature="0" /></svg>